{
    "surfer-api": [
      {
        "id": 0,
        "name": "Killers",
        "country": "Spain",
        "city": "Barcelona",
        "description": "a good sometimes spot crowed always",
        "gps-coords": "41.40437601652249, 2.2194053080690432",
    
        "webcams": [
          {
            "url": "webcams.com/bac/killers",
            "display": true

          }
        ]
      },
      {
        "id": 1,
        "name": "Tyson",
        "country": "Spain",
        "city": "Barcelona",
        "description": "a poor quality due stroms",
        "gps-coords": "41.4352425, 2.43532453",
    
        "webcams": [
          {
            "url": "webcams.com/bac/tyson",
            "display": true

          }
        ]
      },
      {
        "id": 2,
        "name": "Bogatell",
        "country": "Spain",
        "city": "Barcelona",
        "description": "good spot right now",
        "gps-coords": "41.2332323, 2.3452435",
    
        "webcams": [
          {
            "url": "webcams.com/bac/tyson",
            "display": true

          }
        ]
      },
      {
        "id": 3,
        "name": "Rio / secrets",
        "country": "Spain",
        "city": "Barcelona",
        "description": "river point break",
        "gps-coords": "41.40437601652249, 2.2194053080690432",
    
        "webcams": [
          {
            "url": "webcams.com/bac/besos",
            "display": false

          }
        ]
      }
    ]
  }